…
``` r
library(crispR)
find_proto(d_seq = DAT, 
           l = 20, 
           PAM = "NGG")
```

    ## # A tibble: 353 x 5
    ##    start_p end_p protospacer          PAM   strand
    ##      <int> <dbl> <chr>                <chr> <chr> 
    ##  1       6    25 AAACGCTCGCATGTCACCGA AGG   +     
    ##  2      40    59 CGATTTTGAAATTTCCAACA CGG   +     
    ##  3     109   128 TGTGAATGTGAAGTGAAATT CGG   +     
    ##  4     110   129 GTGAATGTGAAGTGAAATTC GGG   +     
    ##  5     115   134 TGTGAAGTGAAATTCGGGTT TGG   +     
    ##  6     122   141 TGAAATTCGGGTTTGGCATT CGG   +     
    ##  7     128   147 TCGGGTTTGGCATTCGGCAT TGG   +     
    ##  8     136   155 GGCATTCGGCATTGGTTGTG TGG   +     
    ##  9     158   177 GAGCTTTTTTCTAAGTTTTC TGG   +     
    ## 10     180   199 GATATTTTTCAAAAGTCTCA AGG   +     
    ## # … with 343 more rows
…
